1,PURCHASE,4150288.00,4168900.00,18612.00
2,SALE,-1234086.97,-2561920.46,-1327833.49
61,MALIK AKHTAR K/S  BAWA CHACK,.00,720.00,720.00
62,SUPER PUNJAB KIR/S  BAWA CHACK,.00,456.00,456.00
64,PAK G/S  BAWA CHAK,.00,312.00,312.00
70,INSAF G/S  RAIL BAZAR,.00,5940.00,5940.00
149,TEMPO D/S  PEOPLES COLONY,.00,371.00,371.00
150,KASHIF G/S  SARFARAZ COLONY,.00,554.00,554.00
165,RAJA SB  MONTGOMERY BAZAR ,.00,1296.00,1296.00
167,PAK IDEAL SWEET  G M ABAD,.00,257.00,257.00
171,CH G/S  JAMIL TOWN  GM ABAD,.00,295.00,295.00
173,BLUE RIBON  G/S  GREEN  VIEW COLONY ,.00,660.00,660.00
175,SHAHBAZ G/S  GREEN VIEW COLONY ,.00,312.00,312.00
179,YASIN G/S  AYUB COLONY  ,.00,198.00,198.00
201,ANSARI  G/S  AFGHAN ABAD,.00,298.00,298.00
213,PSO SHOP  SARGODHA ROAD,.00,64.00,64.00
214,KHAN G/S (N/C) BAWA CHAK,.00,114.00,114.00
220,NAZAMI G/S  MUSTAFA ABAD,.00,288.00,288.00
278,SOHNI G/S  BAMBINO ROAD ,.00,245.25,245.25
304,NAGINA G/S  ANAR KALI BAZAR ,.00,4244.00,4244.00
311,NEW IDEAL CH1NA S/S  GULFISHAN COLONY,.00,156.00,156.00
350,AHSAN G/S  SAEED ABAD,.00,201.00,201.00
351,MAAN KE DUAA  M PURA,.00,168.00,168.00
353,REAL TASTE  IQBAL STADIUM,.00,3748.08,3748.08
356,CHA CHA MAHAND G/S  PARTAB NAGIR,.00,78.00,78.00
379,J N  PAPER  AMIN PUR BAZAR,.00,2464.00,2464.00
423,FERSCO SWEET  GHAZI CHOWK  GMA,.00,875.56,875.56
502,REHMAN G/S  HAKEMAAN WALA CHOWK,.00,156.00,156.00
536,USMANIA D/K  GHOSIA CHOWK,.00,296.82,296.82
566,AL MADINA G/S  SARFARAZ COLONY,.00,639.00,639.00
700,COUNTER SALE,S,640.00,688.50,48.50
705,SUFI SWEET  JATTA WALA CHOWK,.00,94.00,94.00
782,JAMEEL SWEET  ST/3  M PURA,.00,84.00,84.00
797,MUNAWAR STUDIO  MADINA CHOWK,.00,182.00,182.00
822,AL HAFIZ G/S  BAWA CHAK,.00,156.00,156.00
844,MAHFOOZ MUN/S   RAZA ABAD NO 2,.00,261.00,261.00
945,FARAKH G/S  GOBIND PURA,.00,101.85,101.85
1042,CROWN SWEET  RAZA ABAD NO/2,.00,792.00,792.00
1059,SHAH GEE G/S  SABARI CHOWK GMA ,.00,168.00,168.00
1111,SHAHID G/S  GOBEND PURA,.00,105.00,105.00
1151,AL FALAH BOOK/D  RAZA ABAD,.00,464.00,464.00
1194,PARADISE SWEET  ISLAM NAGIR,.00,522.00,522.00
1381,Scheme Less,13843.27,20352.40,6509.13
1389,Scheme,832.00,2587.58,1755.58
1395,HAROON G/S  Z A HASHAMI HALL ,.00,255.00,255.00
1396,SHAKOOR SONS  MONTGOMERY BAZAR,.00,6090.00,6090.00
3,CASH,-2045570.01,-791925.12,1253644.89
4,COMMISSION,3813.75,9336.16,5522.41
24,SHAMI G/S  GULBREG ROAD,.00,461.24,461.24
25,HAFEEZ MUN/S   M PURA,.00,540.48,540.48
26,SHAHID G/S  BAMBINO ROAD,.00,192.00,192.00
28,PAKISTAN D/S  PAKISTAN CHOWK,.00,1863.66,1863.66
29,ABBAS BAKERS  RAZA ABAD NO 3,.00,156.00,156.00
35,MIRZA KR/S  MADINA CHOWK,.00,1190.19,1190.19
51,CO OP SHOP  (N/C)  AGRI/UNIVERSITY,.00,2364.86,2364.86
52,SHAHID IMRAN G/S  ISLAM NAGHAR,.00,117.00,117.00
56,PRIDE SHOP  JAIL ROAD,.00,174.00,174.00
